%YAML 1.1
%TAG !u! tag:unity3d.com,2011:
--- !u!114 &11400000
MonoBehaviour:
  m_ObjectHideFlags: 0
  m_CorrespondingSourceObject: {fileID: 0}
  m_PrefabInstance: {fileID: 0}
  m_PrefabAsset: {fileID: 0}
  m_GameObject: {fileID: 0}
  m_Enabled: 1
  m_EditorHideFlags: 0
  m_Script: {fileID: 11500000, guid: 37de48d3e8c48bb4ab25111c2af751ce, type: 3}
  m_Name: BlinkyChase
  m_EditorClassIdentifier: 
  GhostBehaviour: {fileID: 0}
  PacmanTransform: {fileID: 0}
  distanceToLookAhead: 0
