%YAML 1.1
%TAG !u! tag:unity3d.com,2011:
--- !u!114 &11400000
MonoBehaviour:
  m_ObjectHideFlags: 0
  m_CorrespondingSourceObject: {fileID: 0}
  m_PrefabInstance: {fileID: 0}
  m_PrefabAsset: {fileID: 0}
  m_GameObject: {fileID: 0}
  m_Enabled: 1
  m_EditorHideFlags: 0
  m_Script: {fileID: 11500000, guid: b16bd563b76fb504586b0e31c810f811, type: 3}
  m_Name: Beginning
  m_EditorClassIdentifier: 
  Clips:
  - {fileID: 8300000, guid: c9a4146436446364b824c2f4fb28e927, type: 3}
  Volume: 0.5
  Pitch: 1
